HW3/ALU/alu.vcd
$date
	Sun Dec 06 23:09:27 2020
$end
$version
	Icarus Verilog
$end
$timescale
	1ps
$end
$scope module test_alu $end
$var wire 1 ! rst_n $end
$var wire 1 " overflow $end
$var wire 1 # ovalid $end
$var wire 32 $ odata [31:0] $end
$var wire 1 % ivalid $end
$var wire 4 & inst [3:0] $end
$var wire 32 ' idata_b [31:0] $end
$var wire 32 ( idata_a [31:0] $end
$var wire 1 ) clk $end
$scope module u_alu $end
$var wire 32 * o_data [31:0] $end
$var wire 1 " o_overflow $end
$var wire 1 # o_valid $end
$var wire 1 % i_valid $end
$var wire 1 ! i_rst_n $end
$var wire 4 + i_inst [3:0] $end
$var wire 32 , i_data_b [31:0] $end
$var wire 32 - i_data_a [31:0] $end
$var wire 1 ) i_clk $end
$var reg 32 . o_data_r [31:0] $end
$var reg 32 / o_data_w [31:0] $end
$var reg 1 0 o_overflow_r $end
$var reg 1 1 o_overflow_w $end
$var reg 1 2 o_valid_r $end
$var reg 1 3 o_valid_w $end
$var reg 32 4 temp [31:0] $end
$upscope $end
$scope module u_alu_test $end
$var wire 32 5 i_data [31:0] $end
$var wire 1 " i_overflow $end
$var wire 1 # i_valid $end
$var wire 1 ! i_rst_n $end
$var wire 1 ) i_clk $end
$var reg 6 6 cs [5:0] $end
$var reg 6 7 ns [5:0] $end
$var reg 32 8 o_data_a [31:0] $end
$var reg 32 9 o_data_b [31:0] $end
$var reg 4 : o_inst [3:0] $end
$var reg 1 % o_valid $end
$var integer 32 ; total_error [31:0] $end
$scope begin test_unit[0] $end
$scope module inst $end
$var wire 32 < i_data [31:0] $end
$var wire 1 " i_overflow $end
$var wire 1 = i_start $end
$var wire 1 # i_valid $end
$var wire 32 > o_data_a [31:0] $end
$var wire 32 ? o_data_b [31:0] $end
$var wire 1 @ o_valid $end
$var wire 1 A test_finish $end
$var wire 1 B output_overflow $end
$var wire 32 C output_data [31:0] $end
$var wire 4 D o_inst [3:0] $end
$var wire 1 E o_done $end
$var wire 32 F input_B [31:0] $end
$var wire 32 G input_A [31:0] $end
$var wire 1 ! i_rst_n $end
$var wire 1 ) i_clk $end
$var reg 3 H cs_ [2:0] $end
$var reg 3 I idx_r [2:0] $end
$var reg 3 J idx_w [2:0] $end
$var reg 3 K ns_ [2:0] $end
$var reg 32 L o_data_a_r [31:0] $end
$var reg 32 M o_data_a_w [31:0] $end
$var reg 32 N o_data_b_r [31:0] $end
$var reg 32 O o_data_b_w [31:0] $end
$var reg 1 P o_valid_r $end
$var reg 1 Q o_valid_w $end
$var integer 32 R error [31:0] $end
$upscope $end
$upscope $end
$scope begin test_unit[1] $end
$scope module inst $end
$var wire 32 S i_data [31:0] $end
$var wire 1 " i_overflow $end
$var wire 1 T i_start $end
$var wire 1 # i_valid $end
$var wire 32 U o_data_a [31:0] $end
$var wire 32 V o_data_b [31:0] $end
$var wire 1 W o_valid $end
$var wire 1 X test_finish $end
$var wire 1 Y output_overflow $end
$var wire 32 Z output_data [31:0] $end
$var wire 4 [ o_inst [3:0] $end
$var wire 1 \ o_done $end
$var wire 32 ] input_B [31:0] $end
$var wire 32 ^ input_A [31:0] $end
$var wire 1 ! i_rst_n $end
$var wire 1 ) i_clk $end
$var reg 3 _ cs_ [2:0] $end
$var reg 3 ` idx_r [2:0] $end
$var reg 3 a idx_w [2:0] $end
$var reg 3 b ns_ [2:0] $end
$var reg 32 c o_data_a_r [31:0] $end
$var reg 32 d o_data_a_w [31:0] $end
$var reg 32 e o_data_b_r [31:0] $end
$var reg 32 f o_data_b_w [31:0] $end
$var reg 1 g o_valid_r $end
$var reg 1 h o_valid_w $end
$var integer 32 i error [31:0] $end
$upscope $end
$upscope $end
$scope begin test_unit[2] $end
$scope module inst $end
$var wire 32 j i_data [31:0] $end
$var wire 1 " i_overflow $end
$var wire 1 k i_start $end
$var wire 1 # i_valid $end
$var wire 32 l o_data_a [31:0] $end
$var wire 32 m o_data_b [31:0] $end
$var wire 1 n o_valid $end
$var wire 1 o test_finish $end
$var wire 1 p output_overflow $end
$var wire 32 q output_data [31:0] $end
$var wire 4 r o_inst [3:0] $end
$var wire 1 s o_done $end
$var wire 32 t input_B [31:0] $end
$var wire 32 u input_A [31:0] $end
$var wire 1 ! i_rst_n $end
$var wire 1 ) i_clk $end
$var reg 3 v cs_ [2:0] $end
$var reg 3 w idx_r [2:0] $end
$var reg 3 x idx_w [2:0] $end
$var reg 3 y ns_ [2:0] $end
$var reg 32 z o_data_a_r [31:0] $end
$var reg 32 { o_data_a_w [31:0] $end
$var reg 32 | o_data_b_r [31:0] $end
$var reg 32 } o_data_b_w [31:0] $end
$var reg 1 ~ o_valid_r $end
$var reg 1 !" o_valid_w $end
$var integer 32 "" error [31:0] $end
$upscope $end
$upscope $end
$scope begin test_unit[3] $end
$scope module inst $end
$var wire 32 #" i_data [31:0] $end
$var wire 1 " i_overflow $end
$var wire 1 $" i_start $end
$var wire 1 # i_valid $end
$var wire 32 %" o_data_a [31:0] $end
$var wire 32 &" o_data_b [31:0] $end
$var wire 1 '" o_valid $end
$var wire 1 (" test_finish $end
$var wire 1 )" output_overflow $end
$var wire 32 *" output_data [31:0] $end
$var wire 4 +" o_inst [3:0] $end
$var wire 1 ," o_done $end
$var wire 32 -" input_B [31:0] $end
$var wire 32 ." input_A [31:0] $end
$var wire 1 ! i_rst_n $end
$var wire 1 ) i_clk $end
$var reg 3 /" cs_ [2:0] $end
$var reg 3 0" idx_r [2:0] $end
$var reg 3 1" idx_w [2:0] $end
$var reg 3 2" ns_ [2:0] $end
$var reg 32 3" o_data_a_r [31:0] $end
$var reg 32 4" o_data_a_w [31:0] $end
$var reg 32 5" o_data_b_r [31:0] $end
$var reg 32 6" o_data_b_w [31:0] $end
$var reg 1 7" o_valid_r $end
$var reg 1 8" o_valid_w $end
$var integer 32 9" error [31:0] $end
$upscope $end
$upscope $end
$scope begin test_unit[4] $end
$scope module inst $end
$var wire 32 :" i_data [31:0] $end
$var wire 1 " i_overflow $end
$var wire 1 ;" i_start $end
$var wire 1 # i_valid $end
$var wire 32 <" o_data_a [31:0] $end
$var wire 32 =" o_data_b [31:0] $end
$var wire 1 >" o_valid $end
$var wire 1 ?" test_finish $end
$var wire 1 @" output_overflow $end
$var wire 32 A" output_data [31:0] $end
$var wire 4 B" o_inst [3:0] $end
$var wire 1 C" o_done $end
$var wire 32 D" input_B [31:0] $end
$var wire 32 E" input_A [31:0] $end
$var wire 1 ! i_rst_n $end
$var wire 1 ) i_clk $end
$var reg 3 F" cs_ [2:0] $end
$var reg 3 G" idx_r [2:0] $end
$var reg 3 H" idx_w [2:0] $end
$var reg 3 I" ns_ [2:0] $end
$var reg 32 J" o_data_a_r [31:0] $end
$var reg 32 K" o_data_a_w [31:0] $end
$var reg 32 L" o_data_b_r [31:0] $end
$var reg 32 M" o_data_b_w [31:0] $end
$var reg 1 N" o_valid_r $end
$var reg 1 O" o_valid_w $end
$var integer 32 P" error [31:0] $end
$upscope $end
$upscope $end
$scope begin test_unit[5] $end
$scope module inst $end
$var wire 32 Q" i_data [31:0] $end
$var wire 1 " i_overflow $end
$var wire 1 R" i_start $end
$var wire 1 # i_valid $end
$var wire 32 S" o_data_a [31:0] $end
$var wire 32 T" o_data_b [31:0] $end
$var wire 1 U" o_valid $end
$var wire 1 V" test_finish $end
$var wire 1 W" output_overflow $end
$var wire 32 X" output_data [31:0] $end
$var wire 4 Y" o_inst [3:0] $end
$var wire 1 Z" o_done $end
$var wire 32 [" input_B [31:0] $end
$var wire 32 \" input_A [31:0] $end
$var wire 1 ! i_rst_n $end
$var wire 1 ) i_clk $end
$var reg 3 ]" cs_ [2:0] $end
$var reg 3 ^" idx_r [2:0] $end
$var reg 3 _" idx_w [2:0] $end
$var reg 3 `" ns_ [2:0] $end
$var reg 32 a" o_data_a_r [31:0] $end
$var reg 32 b" o_data_a_w [31:0] $end
$var reg 32 c" o_data_b_r [31:0] $end
$var reg 32 d" o_data_b_w [31:0] $end
$var reg 1 e" o_valid_r $end
$var reg 1 f" o_valid_w $end
$var integer 32 g" error [31:0] $end
$upscope $end
$upscope $end
$scope begin test_unit[6] $end
$scope module inst $end
$var wire 32 h" i_data [31:0] $end
$var wire 1 " i_overflow $end
$var wire 1 i" i_start $end
$var wire 1 # i_valid $end
$var wire 32 j" o_data_a [31:0] $end
$var wire 32 k" o_data_b [31:0] $end
$var wire 1 l" o_valid $end
$var wire 1 m" test_finish $end
$var wire 1 n" output_overflow $end
$var wire 32 o" output_data [31:0] $end
$var wire 4 p" o_inst [3:0] $end
$var wire 1 q" o_done $end
$var wire 32 r" input_B [31:0] $end
$var wire 32 s" input_A [31:0] $end
$var wire 1 ! i_rst_n $end
$var wire 1 ) i_clk $end
$var reg 3 t" cs_ [2:0] $end
$var reg 3 u" idx_r [2:0] $end
$var reg 3 v" idx_w [2:0] $end
$var reg 3 w" ns_ [2:0] $end
$var reg 32 x" o_data_a_r [31:0] $end
$var reg 32 y" o_data_a_w [31:0] $end
$var reg 32 z" o_data_b_r [31:0] $end
$var reg 32 {" o_data_b_w [31:0] $end
$var reg 1 |" o_valid_r $end
$var reg 1 }" o_valid_w $end
$var integer 32 ~" error [31:0] $end
$upscope $end
$upscope $end
$scope begin test_unit[7] $end
$scope module inst $end
$var wire 32 !# i_data [31:0] $end
$var wire 1 " i_overflow $end
$var wire 1 "# i_start $end
$var wire 1 # i_valid $end
$var wire 32 ## o_data_a [31:0] $end
$var wire 32 $# o_data_b [31:0] $end
$var wire 1 %# o_valid $end
$var wire 1 &# test_finish $end
$var wire 1 '# output_overflow $end
$var wire 32 (# output_data [31:0] $end
$var wire 4 )# o_inst [3:0] $end
$var wire 1 *# o_done $end
$var wire 32 +# input_B [31:0] $end
$var wire 32 ,# input_A [31:0] $end
$var wire 1 ! i_rst_n $end
$var wire 1 ) i_clk $end
$var reg 3 -# cs_ [2:0] $end
$var reg 3 .# idx_r [2:0] $end
$var reg 3 /# idx_w [2:0] $end
$var reg 3 0# ns_ [2:0] $end
$var reg 32 1# o_data_a_r [31:0] $end
$var reg 32 2# o_data_a_w [31:0] $end
$var reg 32 3# o_data_b_r [31:0] $end
$var reg 32 4# o_data_b_w [31:0] $end
$var reg 1 5# o_valid_r $end
$var reg 1 6# o_valid_w $end
$var integer 32 7# error [31:0] $end
$upscope $end
$upscope $end
$scope begin test_unit[8] $end
$scope module inst $end
$var wire 32 8# i_data [31:0] $end
$var wire 1 " i_overflow $end
$var wire 1 9# i_start $end
$var wire 1 # i_valid $end
$var wire 32 :# o_data_a [31:0] $end
$var wire 32 ;# o_data_b [31:0] $end
$var wire 1 <# o_valid $end
$var wire 1 =# test_finish $end
$var wire 1 ># output_overflow $end
$var wire 32 ?# output_data [31:0] $end
$var wire 4 @# o_inst [3:0] $end
$var wire 1 A# o_done $end
$var wire 32 B# input_B [31:0] $end
$var wire 32 C# input_A [31:0] $end
$var wire 1 ! i_rst_n $end
$var wire 1 ) i_clk $end
$var reg 3 D# cs_ [2:0] $end
$var reg 3 E# idx_r [2:0] $end
$var reg 3 F# idx_w [2:0] $end
$var reg 3 G# ns_ [2:0] $end
$var reg 32 H# o_data_a_r [31:0] $end
$var reg 32 I# o_data_a_w [31:0] $end
$var reg 32 J# o_data_b_r [31:0] $end
$var reg 32 K# o_data_b_w [31:0] $end
$var reg 1 L# o_valid_r $end
$var reg 1 M# o_valid_w $end
$var integer 32 N# error [31:0] $end
$upscope $end
$upscope $end
$scope begin test_unit[9] $end
$scope module inst $end
$var wire 32 O# i_data [31:0] $end
$var wire 1 " i_overflow $end
$var wire 1 P# i_start $end
$var wire 1 # i_valid $end
$var wire 32 Q# o_data_a [31:0] $end
$var wire 32 R# o_data_b [31:0] $end
$var wire 1 S# o_valid $end
$var wire 1 T# test_finish $end
$var wire 1 U# output_overflow $end
$var wire 32 V# output_data [31:0] $end
$var wire 4 W# o_inst [3:0] $end
$var wire 1 X# o_done $end
$var wire 32 Y# input_B [31:0] $end
$var wire 32 Z# input_A [31:0] $end
$var wire 1 ! i_rst_n $end
$var wire 1 ) i_clk $end
$var reg 3 [# cs_ [2:0] $end
$var reg 3 \# idx_r [2:0] $end
$var reg 3 ]# idx_w [2:0] $end
$var reg 3 ^# ns_ [2:0] $end
$var reg 32 _# o_data_a_r [31:0] $end
$var reg 32 `# o_data_a_w [31:0] $end
$var reg 32 a# o_data_b_r [31:0] $end
$var reg 32 b# o_data_b_w [31:0] $end
$var reg 1 c# o_valid_r $end
$var reg 1 d# o_valid_w $end
$var integer 32 e# error [31:0] $end
$upscope $end
$upscope $end
$scope begin test_unit[10] $end
$scope module inst $end
$var wire 32 f# i_data [31:0] $end
$var wire 1 " i_overflow $end
$var wire 1 g# i_start $end
$var wire 1 # i_valid $end
$var wire 32 h# o_data_a [31:0] $end
$var wire 32 i# o_data_b [31:0] $end
$var wire 1 j# o_valid $end
$var wire 1 k# test_finish $end
$var wire 1 l# output_overflow $end
$var wire 32 m# output_data [31:0] $end
$var wire 4 n# o_inst [3:0] $end
$var wire 1 o# o_done $end
$var wire 32 p# input_B [31:0] $end
$var wire 32 q# input_A [31:0] $end
$var wire 1 ! i_rst_n $end
$var wire 1 ) i_clk $end
$var reg 3 r# cs_ [2:0] $end
$var reg 3 s# idx_r [2:0] $end
$var reg 3 t# idx_w [2:0] $end
$var reg 3 u# ns_ [2:0] $end
$var reg 32 v# o_data_a_r [31:0] $end
$var reg 32 w# o_data_a_w [31:0] $end
$var reg 32 x# o_data_b_r [31:0] $end
$var reg 32 y# o_data_b_w [31:0] $end
$var reg 1 z# o_valid_r $end
$var reg 1 {# o_valid_w $end
$var integer 32 |# error [31:0] $end
$upscope $end
$upscope $end
$scope begin test_unit[11] $end
$scope module inst $end
$var wire 32 }# i_data [31:0] $end
$var wire 1 " i_overflow $end
$var wire 1 ~# i_start $end
$var wire 1 # i_valid $end
$var wire 32 !$ o_data_a [31:0] $end
$var wire 32 "$ o_data_b [31:0] $end
$var wire 1 #$ o_valid $end
$var wire 1 $$ test_finish $end
$var wire 1 %$ output_overflow $end
$var wire 32 &$ output_data [31:0] $end
$var wire 4 '$ o_inst [3:0] $end
$var wire 1 ($ o_done $end
$var wire 32 )$ input_B [31:0] $end
$var wire 32 *$ input_A [31:0] $end
$var wire 1 ! i_rst_n $end
$var wire 1 ) i_clk $end
$var reg 3 +$ cs_ [2:0] $end
$var reg 3 ,$ idx_r [2:0] $end
$var reg 3 -$ idx_w [2:0] $end
$var reg 3 .$ ns_ [2:0] $end
$var reg 32 /$ o_data_a_r [31:0] $end
$var reg 32 0$ o_data_a_w [31:0] $end
$var reg 32 1$ o_data_b_r [31:0] $end
$var reg 32 2$ o_data_b_w [31:0] $end
$var reg 1 3$ o_valid_r $end
$var reg 1 4$ o_valid_w $end
$var integer 32 5$ error [31:0] $end
$upscope $end
$upscope $end
$scope begin test_unit[12] $end
$scope module inst $end
$var wire 32 6$ i_data [31:0] $end
$var wire 1 " i_overflow $end
$var wire 1 7$ i_start $end
$var wire 1 # i_valid $end
$var wire 32 8$ o_data_a [31:0] $end
$var wire 32 9$ o_data_b [31:0] $end
$var wire 1 :$ o_valid $end
$var wire 1 ;$ test_finish $end
$var wire 1 <$ output_overflow $end
$var wire 32 =$ output_data [31:0] $end
$var wire 4 >$ o_inst [3:0] $end
$var wire 1 ?$ o_done $end
$var wire 32 @$ input_B [31:0] $end
$var wire 32 A$ input_A [31:0] $end
$var wire 1 ! i_rst_n $end
$var wire 1 ) i_clk $end
$var reg 3 B$ cs_ [2:0] $end
$var reg 3 C$ idx_r [2:0] $end
$var reg 3 D$ idx_w [2:0] $end
$var reg 3 E$ ns_ [2:0] $end
$var reg 32 F$ o_data_a_r [31:0] $end
$var reg 32 G$ o_data_a_w [31:0] $end
$var reg 32 H$ o_data_b_r [31:0] $end
$var reg 32 I$ o_data_b_w [31:0] $end
$var reg 1 J$ o_valid_r $end
$var reg 1 K$ o_valid_w $end
$var integer 32 L$ error [31:0] $end
$upscope $end
$upscope $end
$scope begin test_unit[13] $end
$scope module inst $end
$var wire 32 M$ i_data [31:0] $end
$var wire 1 " i_overflow $end
$var wire 1 N$ i_start $end
$var wire 1 # i_valid $end
$var wire 32 O$ o_data_a [31:0] $end
$var wire 32 P$ o_data_b [31:0] $end
$var wire 1 Q$ o_valid $end
$var wire 1 R$ test_finish $end
$var wire 1 S$ output_overflow $end
$var wire 32 T$ output_data [31:0] $end
$var wire 4 U$ o_inst [3:0] $end
$var wire 1 V$ o_done $end
$var wire 32 W$ input_B [31:0] $end
$var wire 32 X$ input_A [31:0] $end
$var wire 1 ! i_rst_n $end
$var wire 1 ) i_clk $end
$var reg 3 Y$ cs_ [2:0] $end
$var reg 3 Z$ idx_r [2:0] $end
$var reg 3 [$ idx_w [2:0] $end
$var reg 3 \$ ns_ [2:0] $end
$var reg 32 ]$ o_data_a_r [31:0] $end
$var reg 32 ^$ o_data_a_w [31:0] $end
$var reg 32 _$ o_data_b_r [31:0] $end
$var reg 32 `$ o_data_b_w [31:0] $end
$var reg 1 a$ o_valid_r $end
$var reg 1 b$ o_valid_w $end
$var integer 32 c$ error [31:0] $end
$upscope $end
$upscope $end
$scope begin test_unit[14] $end
$scope module inst $end
$var wire 32 d$ i_data [31:0] $end
$var wire 1 " i_overflow $end
$var wire 1 e$ i_start $end
$var wire 1 # i_valid $end
$var wire 32 f$ o_data_a [31:0] $end
$var wire 32 g$ o_data_b [31:0] $end
$var wire 1 h$ o_valid $end
$var wire 1 i$ test_finish $end
$var wire 1 j$ output_overflow $end
$var wire 32 k$ output_data [31:0] $end
$var wire 4 l$ o_inst [3:0] $end
$var wire 1 m$ o_done $end
$var wire 32 n$ input_B [31:0] $end
$var wire 32 o$ input_A [31:0] $end
$var wire 1 ! i_rst_n $end
$var wire 1 ) i_clk $end
$var reg 3 p$ cs_ [2:0] $end
$var reg 3 q$ idx_r [2:0] $end
$var reg 3 r$ idx_w [2:0] $end
$var reg 3 s$ ns_ [2:0] $end
$var reg 32 t$ o_data_a_r [31:0] $end
$var reg 32 u$ o_data_a_w [31:0] $end
$var reg 32 v$ o_data_b_r [31:0] $end
$var reg 32 w$ o_data_b_w [31:0] $end
$var reg 1 x$ o_valid_r $end
$var reg 1 y$ o_valid_w $end
$var integer 32 z$ error [31:0] $end
$upscope $end
$upscope $end
$upscope $end
$scope module u_clk $end
$var reg 1 ) clk $end
$var reg 1 ! rst_n $end
$upscope $end
$upscope $end
$enddefinitions $end
#0
$dumpvars
bx z$
0y$
xx$
b0 w$
bx v$
b0 u$
bx t$
bx s$
bx r$
bx q$
bx p$
bx o$
bx n$
xm$
bx l$
bx k$
xj$
xi$
xh$
bx g$
bx f$
xe$
bx d$
bx c$
0b$
xa$
b0 `$
bx _$
b0 ^$
bx ]$
bx \$
bx [$
bx Z$
bx Y$
bx X$
bx W$
xV$
bx U$
bx T$
xS$
xR$
xQ$
bx P$
bx O$
xN$
bx M$
bx L$
0K$
xJ$
b0 I$
bx H$
b0 G$
bx F$
bx E$
bx D$
bx C$
bx B$
bx A$
bx @$
x?$
bx >$
bx =$
x<$
x;$
x:$
bx 9$
bx 8$
x7$
bx 6$
bx 5$
04$
x3$
b0 2$
bx 1$
b0 0$
bx /$
bx .$
bx -$
bx ,$
bx +$
bx *$
bx )$
x($
bx '$
bx &$
x%$
x$$
x#$
bx "$
bx !$
x~#
bx }#
bx |#
0{#
xz#
b0 y#
bx x#
b0 w#
bx v#
bx u#
bx t#
bx s#
bx r#
bx q#
bx p#
xo#
bx n#
bx m#
xl#
xk#
xj#
bx i#
bx h#
xg#
bx f#
bx e#
0d#
xc#
b0 b#
bx a#
b0 `#
bx _#
bx ^#
bx ]#
bx \#
bx [#
bx Z#
bx Y#
xX#
bx W#
bx V#
xU#
xT#
xS#
bx R#
bx Q#
xP#
bx O#
bx N#
0M#
xL#
b0 K#
bx J#
b0 I#
bx H#
bx G#
bx F#
bx E#
bx D#
bx C#
bx B#
xA#
bx @#
bx ?#
x>#
x=#
x<#
bx ;#
bx :#
x9#
bx 8#
bx 7#
06#
x5#
b0 4#
bx 3#
b0 2#
bx 1#
bx 0#
bx /#
bx .#
bx -#
bx ,#
bx +#
x*#
bx )#
bx (#
x'#
x&#
x%#
bx $#
bx ##
x"#
bx !#
bx ~"
0}"
x|"
b0 {"
bx z"
b0 y"
bx x"
bx w"
bx v"
bx u"
bx t"
bx s"
bx r"
xq"
bx p"
bx o"
xn"
xm"
xl"
bx k"
bx j"
xi"
bx h"
bx g"
0f"
xe"
b0 d"
bx c"
b0 b"
bx a"
bx `"
bx _"
bx ^"
bx ]"
bx \"
bx ["
xZ"
bx Y"
bx X"
xW"
xV"
xU"
bx T"
bx S"
xR"
bx Q"
bx P"
0O"
xN"
b0 M"
bx L"
b0 K"
bx J"
bx I"
bx H"
bx G"
bx F"
bx E"
bx D"
xC"
bx B"
bx A"
x@"
x?"
x>"
bx ="
bx <"
x;"
bx :"
bx 9"
08"
x7"
b0 6"
bx 5"
b0 4"
bx 3"
bx 2"
bx 1"
bx 0"
bx /"
bx ."
bx -"
x,"
bx +"
bx *"
x)"
x("
x'"
bx &"
bx %"
x$"
bx #"
bx ""
0!"
x~
b0 }
bx |
b0 {
bx z
bx y
bx x
bx w
bx v
bx u
bx t
xs
bx r
bx q
xp
xo
xn
bx m
bx l
xk
bx j
bx i
0h
xg
b0 f
bx e
b0 d
bx c
bx b
bx a
bx `
bx _
bx ^
bx ]
x\
bx [
bx Z
xY
xX
xW
bx V
bx U
xT
bx S
bx R
0Q
xP
b0 O
bx N
b0 M
bx L
bx K
bx J
bx I
bx H
bx G
bx F
xE
bx D
bx C
xB
xA
x@
bx ?
bx >
x=
bx <
b0 ;
bx :
bx 9
bx 8
bx 7
bx 6
bx 5
bx 4
03
x2
01
x0
b0 /
bx .
bx -
bx ,
bx +
bx *
1)
bx (
bx '
bx &
0%
bx $
x#
x"
1!
$end
#2500
b11 G
b1111111111111111111111111111101 F
b10000000000000000000000000000000 C
1B
b0 D
b0 J
b0x K
b11 ^
b1 ]
b10 Z
0Y
b1 [
b0 a
b0x b
b10000000000 u
b1000000000000 t
b10000000000000000000000 q
0p
b10 r
b0 x
b0x y
b10000000000 ."
b1000000000000 -"
b1000000000000 *"
0)"
b11 +"
b0 1"
b0x 2"
b10000000000 E"
b1000000000000 D"
b10000000000 A"
0@"
b100 B"
b0 H"
b0x I"
b11 \"
b1111111111111111111111111111101 ["
b10000000000000000000000000000000 X"
0W"
b101 Y"
b0 _"
b0x `"
b11 s"
b1111111111111111111111111111101 r"
b10000000000000000000000000000110 o"
1n"
b110 p"
b0 v"
b0x w"
b11 ,#
b1000 +#
b11000 (#
0'#
b111 )#
b0 /#
b0x 0#
b1000 C#
b11 B#
b1000 ?#
0>#
b1000 @#
b0 F#
b0x G#
b1000 Z#
b11 Y#
b11 V#
0U#
b1001 W#
b0 ]#
b0x ^#
b1000 q#
b11 p#
b0 m#
0l#
b1010 n#
b0 t#
b0x u#
b1000 *$
b11 )$
b1011 &$
0%$
b1011 '$
b0 -$
b0x .$
b1000 A$
b11 @$
b1011 =$
0<$
b1100 >$
b0 D$
b0x E$
b1000 X$
b0 W$
b11111111111111111111111111110111 T$
0S$
b1101 U$
b0 [$
b0x \$
b1000 o$
b0 n$
b10000000000000000000000000000 k$
0j$
b1110 l$
b0 r$
b0x s$
b1 7
0#
02
0"
00
b0 $
b0 *
b0 5
b0 <
b0 S
b0 j
b0 #"
b0 :"
b0 Q"
b0 h"
b0 !#
b0 8#
b0 O#
b0 f#
b0 }#
b0 6$
b0 M$
b0 d$
b0 .
b0 ?
b0 N
b0 >
b0 L
0@
0P
0A
b0 I
0E
b0 H
b0 V
b0 e
b0 U
b0 c
0W
0g
0X
b0 `
0\
b0 _
b0 m
b0 |
b0 l
b0 z
0n
0~
0o
b0 w
0s
b0 v
b0 &"
b0 5"
b0 %"
b0 3"
0'"
07"
0("
b0 0"
0,"
b0 /"
b0 ="
b0 L"
b0 <"
b0 J"
0>"
0N"
0?"
b0 G"
0C"
b0 F"
b0 T"
b0 c"
b0 S"
b0 a"
0U"
0e"
0V"
b0 ^"
0Z"
b0 ]"
b0 k"
b0 z"
b0 j"
b0 x"
0l"
0|"
0m"
b0 u"
0q"
b0 t"
b0 $#
b0 3#
b0 ##
b0 1#
0%#
05#
0&#
b0 .#
0*#
b0 -#
b0 ;#
b0 J#
b0 :#
b0 H#
0<#
0L#
0=#
b0 E#
0A#
b0 D#
b0 R#
b0 a#
b0 Q#
b0 _#
0S#
0c#
0T#
b0 \#
0X#
b0 [#
b0 i#
b0 x#
b0 h#
b0 v#
0j#
0z#
0k#
b0 s#
0o#
b0 r#
b0 "$
b0 1$
b0 !$
b0 /$
0#$
03$
0$$
b0 ,$
0($
b0 +$
b0 9$
b0 H$
b0 8$
b0 F$
0:$
0J$
0;$
b0 C$
0?$
b0 B$
b0 P$
b0 _$
b0 O$
b0 ]$
0Q$
0a$
0R$
b0 Z$
0V$
b0 Y$
b0 g$
b0 v$
b0 f$
b0 t$
0h$
0x$
0i$
b0 q$
0m$
b0 p$
b0 6
0!
#5000
b1 7
b0 R
b0 i
b0 ""
b0 9"
b0 P"
b0 g"
b0 ~"
b0 7#
b0 N#
b0 e#
b0 |#
b0 5$
b0 L$
b0 c$
b0 z$
0)
#10000
1)
#15000
0)
#20000
1)
#25000
0)
#30000
1)
#35000
0)
#40000
1)
#45000
0)
#50000
1)
1!
#55000
b0 K
b0 b
b0 y
b0 2"
b0 I"
b0 `"
b0 w"
b0 0#
b0 G#
b0 ^#
b0 u#
b0 .$
b0 E$
b0 \$
b0 s$
b0 &
b0 +
b0 :
b0 '
b0 ,
b0 9
b0 (
b0 -
b0 8
1=
b0x H
b0x _
b0x v
b0x /"
b0x F"
b0x ]"
b0x t"
b0x -#
b0x D#
b0x [#
b0x r#
b0x +$
b0x B$
b0x Y$
b0x p$
b1 6
0)
#60000
1)
#65000
b0x s$
b0x \$
b0x E$
b0x .$
b0x u#
b0x ^#
b0x G#
b0x 0#
b0x w"
b0x `"
b0x I"
b0x 2"
b0x y
b0x b
b1 K
b0 p$
b0 Y$
b0 B$
b0 +$
b0 r#
b0 [#
b0 D#
b0 -#
b0 t"
b0 ]"
b0 F"
b0 /"
b0 v
b0 _
b0 H
0)
#70000
1)
#75000
b1111111111111111111111111111101 O
b11 M
1Q
b10 K
b0 b
b0 y
b0 2"
b0 I"
b0 `"
b0 w"
b0 0#
b0 G#
b0 ^#
b0 u#
b0 .$
b0 E$
b0 \$
b0 s$
b1 H
b0x _
b0x v
b0x /"
b0x F"
b0x ]"
b0x t"
b0x -#
b0x D#
b0x [#
b0x r#
b0x +$
b0x B$
b0x Y$
b0x p$
0)
#80000
1)
#85000
13
11
b10000000000000000000000000000000 /
b0x s$
b0x \$
b0x E$
b0x .$
b0x u#
b0x ^#
b0x G#
b0x 0#
b0x w"
b0x `"
b0x I"
b0x 2"
b0x y
b0x b
1%
b1111111111111111111111111111101 '
b1111111111111111111111111111101 ,
b1111111111111111111111111111101 9
b11 (
b11 -
b11 8
b0 O
b0 M
0Q
b0 p$
b0 Y$
b0 B$
b0 +$
b0 r#
b0 [#
b0 D#
b0 -#
b0 t"
b0 ]"
b0 F"
b0 /"
b0 v
b0 _
b1111111111111111111111111111101 ?
b1111111111111111111111111111101 N
b11 >
b11 L
1@
1P
b10 H
0)
#90000
b1 J
b1 K
1#
12
1"
10
b10000000000000000000000000000000 $
b10000000000000000000000000000000 *
b10000000000000000000000000000000 5
b10000000000000000000000000000000 <
b10000000000000000000000000000000 S
b10000000000000000000000000000000 j
b10000000000000000000000000000000 #"
b10000000000000000000000000000000 :"
b10000000000000000000000000000000 Q"
b10000000000000000000000000000000 h"
b10000000000000000000000000000000 !#
b10000000000000000000000000000000 8#
b10000000000000000000000000000000 O#
b10000000000000000000000000000000 f#
b10000000000000000000000000000000 }#
b10000000000000000000000000000000 6$
b10000000000000000000000000000000 M$
b10000000000000000000000000000000 d$
b10000000000000000000000000000000 .
1)
#95000
03
b0 /
01
b0 '
b0 ,
b0 9
b0 (
b0 -
b0 8
0%
b101000001 G
b111001000 F
b1100001001 C
0B
b111001000 O
b101000001 M
1Q
b10 K
b0 b
b0 y
b0 2"
b0 I"
b0 `"
b0 w"
b0 0#
b0 G#
b0 ^#
b0 u#
b0 .$
b0 E$
b0 \$
b0 s$
b0 ?
b0 N
b0 >
b0 L
0@
0P
b1 I
b1 H
b0x _
b0x v
b0x /"
b0x F"
b0x ]"
b0x t"
b0x -#
b0x D#
b0x [#
b0x r#
b0x +$
b0x B$
b0x Y$
b0x p$
0)
#100000
b111001000 O
b101000001 M
1Q
0#
02
0"
00
b0 $
b0 *
b0 5
b0 <
b0 S
b0 j
b0 #"
b0 :"
b0 Q"
b0 h"
b0 !#
b0 8#
b0 O#
b0 f#
b0 }#
b0 6$
b0 M$
b0 d$
b0 .
1)
#105000
13
b1100001001 /
b0x s$
b0x \$
b0x E$
b0x .$
b0x u#
b0x ^#
b0x G#
b0x 0#
b0x w"
b0x `"
b0x I"
b0x 2"
b0x y
b0x b
1%
b111001000 '
b111001000 ,
b111001000 9
b101000001 (
b101000001 -
b101000001 8
b0 O
b0 M
0Q
b0 p$
b0 Y$
b0 B$
b0 +$
b0 r#
b0 [#
b0 D#
b0 -#
b0 t"
b0 ]"
b0 F"
b0 /"
b0 v
b0 _
b111001000 ?
b111001000 N
b101000001 >
b101000001 L
1@
1P
b10 H
0)
