HW3/FPU/fpu.vcd
$date
	Sun Dec 06 23:09:07 2020
$end
$version
	Icarus Verilog
$end
$timescale
	1ps
$end
$scope module test_fpu $end
$var wire 1 ! rst_n $end
$var wire 1 " ovalid $end
$var wire 32 # odata [31:0] $end
$var wire 1 $ ivalid $end
$var wire 1 % inst $end
$var wire 32 & idata_b [31:0] $end
$var wire 32 ' idata_a [31:0] $end
$var wire 1 ( clk $end
$scope module u_clk $end
$var reg 1 ( clk $end
$var reg 1 ! rst_n $end
$upscope $end
$scope module u_fpu $end
$var wire 1 ( i_clk $end
$var wire 1 ! i_rst_n $end
$var wire 32 ) o_data [31:0] $end
$var wire 1 " o_valid $end
$var wire 1 $ i_valid $end
$var wire 1 % i_inst $end
$var wire 32 * i_data_b [31:0] $end
$var wire 32 + i_data_a [31:0] $end
$var reg 65 , mul_out [64:0] $end
$var reg 32 - n [31:0] $end
$var reg 32 . o_data_r [31:0] $end
$var reg 32 / o_data_w [31:0] $end
$var reg 1 0 o_valid_r $end
$var reg 1 1 o_valid_w $end
$var reg 32 2 out [31:0] $end
$var reg 1 3 round $end
$var reg 32 4 temp_a [31:0] $end
$var reg 32 5 temp_b [31:0] $end
$upscope $end
$scope module u_fpu_test $end
$var wire 1 ( i_clk $end
$var wire 32 6 i_data [31:0] $end
$var wire 1 ! i_rst_n $end
$var wire 1 " i_valid $end
$var reg 2 7 cs [1:0] $end
$var reg 2 8 ns [1:0] $end
$var reg 32 9 o_data_a [31:0] $end
$var reg 32 : o_data_b [31:0] $end
$var reg 1 % o_inst $end
$var reg 1 $ o_valid $end
$var integer 32 ; total_error [31:0] $end
$scope begin test_unit[0] $end
$scope module inst $end
$var wire 1 ( i_clk $end
$var wire 32 < i_data [31:0] $end
$var wire 1 ! i_rst_n $end
$var wire 1 = i_start $end
$var wire 1 " i_valid $end
$var wire 32 > o_data_a [31:0] $end
$var wire 32 ? o_data_b [31:0] $end
$var wire 1 @ o_valid $end
$var wire 1 A test_finish $end
$var wire 32 B output_data [31:0] $end
$var wire 1 C o_inst $end
$var wire 1 D o_done $end
$var wire 32 E input_B [31:0] $end
$var wire 32 F input_A [31:0] $end
$var reg 3 G cs_ [2:0] $end
$var reg 4 H idx_r [3:0] $end
$var reg 4 I idx_w [3:0] $end
$var reg 3 J ns_ [2:0] $end
$var reg 32 K o_data_a_r [31:0] $end
$var reg 32 L o_data_a_w [31:0] $end
$var reg 32 M o_data_b_r [31:0] $end
$var reg 32 N o_data_b_w [31:0] $end
$var reg 1 O o_valid_r $end
$var reg 1 P o_valid_w $end
$var integer 32 Q error [31:0] $end
$upscope $end
$upscope $end
$scope begin test_unit[1] $end
$scope module inst $end
$var wire 1 ( i_clk $end
$var wire 32 R i_data [31:0] $end
$var wire 1 ! i_rst_n $end
$var wire 1 S i_start $end
$var wire 1 " i_valid $end
$var wire 32 T o_data_a [31:0] $end
$var wire 32 U o_data_b [31:0] $end
$var wire 1 V o_valid $end
$var wire 1 W test_finish $end
$var wire 32 X output_data [31:0] $end
$var wire 1 Y o_inst $end
$var wire 1 Z o_done $end
$var wire 32 [ input_B [31:0] $end
$var wire 32 \ input_A [31:0] $end
$var reg 3 ] cs_ [2:0] $end
$var reg 4 ^ idx_r [3:0] $end
$var reg 4 _ idx_w [3:0] $end
$var reg 3 ` ns_ [2:0] $end
$var reg 32 a o_data_a_r [31:0] $end
$var reg 32 b o_data_a_w [31:0] $end
$var reg 32 c o_data_b_r [31:0] $end
$var reg 32 d o_data_b_w [31:0] $end
$var reg 1 e o_valid_r $end
$var reg 1 f o_valid_w $end
$var integer 32 g error [31:0] $end
$upscope $end
$upscope $end
$upscope $end
$upscope $end
$enddefinitions $end
#0
$dumpvars
bx g
0f
xe
b0 d
bx c
b0 b
bx a
bx `
bx _
bx ^
bx ]
bx \
bx [
xZ
xY
bx X
xW
xV
bx U
bx T
xS
bx R
bx Q
0P
xO
b0 N
bx M
b0 L
bx K
bx J
bx I
bx H
bx G
bx F
bx E
xD
xC
bx B
xA
x@
bx ?
bx >
x=
bx <
b0 ;
bx :
bx 9
bx 8
bx 7
bx 6
bx 5
bx 4
x3
bx 2
01
x0
b0 /
bx .
bx -
bx ,
bx +
bx *
bx )
1(
bx '
bx &
x%
0$
bx #
x"
1!
$end
#2500
b10111111101000000000000000000000 F
b111111110000000000000000000000 E
b111110100000000000000000000000 B
0C
b0 I
b0x J
b111111101100000000000000000000 \
b111111000000000000000000000000 [
b111111001100000000000000000000 X
1Y
b0 _
b0x `
b1 8
0"
00
b0 #
b0 )
b0 6
b0 <
b0 R
b0 .
b0 ?
b0 M
b0 >
b0 K
0@
0O
0A
b0 H
0D
b0 G
b0 U
b0 c
b0 T
b0 a
0V
0e
0W
b0 ^
0Z
b0 ]
b0 7
0!
#5000
b1 8
b0 Q
b0 g
0(
#10000
1(
#15000
0(
#20000
1(
#25000
0(
#30000
1(
#35000
0(
#40000
1(
#45000
0(
#50000
1(
1!
#55000
b0 J
b0 `
0%
b0 &
b0 *
b0 :
b0 '
b0 +
b0 9
1=
b0x G
b0x ]
b1 7
0(
#60000
1(
#65000
b0x `
b1 J
b0 ]
b0 G
0(
#70000
1(
#75000
b111111110000000000000000000000 N
b10111111101000000000000000000000 L
1P
b10 J
b0 `
b1 G
b0x ]
0(
#80000
1(
#85000
11
b111110100000000000000000000000 /
b10 -
b100000000000000000000000 2
b110000000000000000000000 5
b101000000000000000000000 4
b0x `
1$
b111111110000000000000000000000 &
b111111110000000000000000000000 *
b111111110000000000000000000000 :
b10111111101000000000000000000000 '
b10111111101000000000000000000000 +
b10111111101000000000000000000000 9
b0 N
b0 L
0P
b0 ]
b111111110000000000000000000000 ?
b111111110000000000000000000000 M
b10111111101000000000000000000000 >
b10111111101000000000000000000000 K
1@
1O
b10 G
0(
#90000
b1 I
b1 J
1"
10
b111110100000000000000000000000 #
b111110100000000000000000000000 )
b111110100000000000000000000000 6
b111110100000000000000000000000 <
b111110100000000000000000000000 R
b111110100000000000000000000000 .
1(
#95000
01
b0 /
b0 &
b0 *
b0 :
b0 '
b0 +
b0 9
0$
b111111101100000000000000000000 F
b111111000000000000000000000000 E
b111111111100000000000000000000 B
b111111000000000000000000000000 N
b111111101100000000000000000000 L
1P
b10 J
b0 `
b0 ?
b0 M
b0 >
b0 K
0@
0O
b1 H
b1 G
b0x ]
0(
#100000
b111111000000000000000000000000 N
b111111101100000000000000000000 L
1P
0"
00
b0 #
b0 )
b0 6
b0 <
b0 R
b0 .
1(
#105000
11
b111111111100000000000000000000 /
b111100000000000000000000 2
03
b1 -
b10000000000000000000000 5
b101100000000000000000000 4
b0x `
1$
b111111000000000000000000000000 &
b111111000000000000000000000000 *
b111111000000000000000000000000 :
b111111101100000000000000000000 '
b111111101100000000000000000000 +
b111111101100000000000000000000 9
b0 N
b0 L
0P
b0 ]
b111111000000000000000000000000 ?
b111111000000000000000000000000 M
b111111101100000000000000000000 >
b111111101100000000000000000000 K
1@
1O
b10 G
0(
#110000
b10 I
b1 J
1"
10
b111111111100000000000000000000 #
b111111111100000000000000000000 )
b111111111100000000000000000000 6
b111111111100000000000000000000 <
b111111111100000000000000000000 R
b111111111100000000000000000000 .
1(
#115000
01
b0 /
b0 &
b0 *
b0 :
b0 '
b0 +
b0 9
0$
b111111101101001111110111110100 F
b111101000000001010110111110101 E
b111111101110010000001101100100 B
b111101000000001010110111110101 N
b111111101101001111110111110100 L
1P
b10 J
b0 `
b0 ?
b0 M
b0 >
b0 K
0@
0O
b10 H
b1 G
b0x ]
0(
#120000
b111101000000001010110111110101 N
b111111101101001111110111110100 L
1P
0"
00
b0 #
b0 )
b0 6
b0 <
b0 R
b0 .
1(
#125000
11
b111111101110010000001101100100 /
b101110010000001101100011 2
13
b101 -
b1000000010101101111 5
b101101001111110111110100 4
b0x `
1$
b111101000000001010110111110101 &
b111101000000001010110111110101 *
b111101000000001010110111110101 :
b111111101101001111110111110100 '
b111111101101001111110111110100 +
b111111101101001111110111110100 9
b0 N
b0 L
0P
b0 ]
b111101000000001010110111110101 ?
b111101000000001010110111110101 M
b111111101101001111110111110100 >
b111111101101001111110111110100 K
1@
1O
b10 G
0(
#130000
b11 I
b1 J
1"
10
b111111101110010000001101100100 #
b111111101110010000001101100100 )
b111111101110010000001101100100 6
b111111101110010000001101100100 <
b111111101110010000001101100100 R
b111111101110010000001101100100 .
1(
#135000
01
b0 /
b0 &
b0 *
b0 :
b0 '
b0 +
b0 9
0$
b111011010011011110001100100010 F
b111111101101001111110111110100 E
b111111101101010110010011100110 B
b111111101101001111110111110100 N
b111011010011011110001100100010 L
1P
b10 J
b0 `
b0 ?
b0 M
b0 >
b0 K
0@
0O
b11 H
b1 G
b0x ]
0(
#140000
b111111101101001111110111110100 N
b111011010011011110001100100010 L
1P
0"
00
b0 #
b0 )
b0 6
b0 <
b0 R
b0 .
1(
#145000
11
b111111101101010110010011100110 /
b101101010110010011100101 2
b1001 -
b101101001111110111110100 5
b110011011110001 4
b0x `
1$
b111111101101001111110111110100 &
b111111101101001111110111110100 *
b111111101101001111110111110100 :
b111011010011011110001100100010 '
b111011010011011110001100100010 +
b111011010011011110001100100010 9
b0 N
b0 L
0P
b0 ]
b111111101101001111110111110100 ?
b111111101101001111110111110100 M
b111011010011011110001100100010 >
b111011010011011110001100100010 K
1@
1O
b10 G
0(
#150000
b100 I
b1 J
1"
10
b111111101101010110010011100110 #
b111111101101010110010011100110 )
b111111101101010110010011100110 6
b111111101101010110010011100110 <
b111111101101010110010011100110 R
b111111101101010110010011100110 .
1(
#155000
01
b0 /
b0 &
b0 *
b0 :
b0 '
b0 +
b0 9
0$
b111111101101001111110111110100 N
b111011010011011110001100100010 L
1P
b10 J
b0 `
b0 ?
b0 M
b0 >
b0 K
0@
0O
b100 H
b1 G
b0x ]
0(
#160000
b111111101101001111110111110100 N
b111011010011011110001100100010 L
1P
0"
00
b0 #
b0 )
b0 6
b0 <
b0 R
b0 .
1(
#165000
11
b111111101101010110010011100110 /
b101101001111110111110100 5
b110011011110001 4
b0x `
1$
b111111101101001111110111110100 &
b111111101101001111110111110100 *
b111111101101001111110111110100 :
b111011010011011110001100100010 '
b111011010011011110001100100010 +
b111011010011011110001100100010 9
b0 N
b0 L
0P
b0 ]
b111111101101001111110111110100 ?
b111111101101001111110111110100 M
b111011010011011110001100100010 >
b111011010011011110001100100010 K
1@
1O
b10 G
0(
#170000
b101 I
b1 J
1"
10
b111111101101010110010011100110 #
b111111101101010110010011100110 )
b111111101101010110010011100110 6
b111111101101010110010011100110 <
b111111101101010110010011100110 R
b111111101101010110010011100110 .
1(
#175000
01
b0 /
b0 &
b0 *
b0 :
b0 '
b0 +
b0 9
0$
b10111011010011011110001100100010 F
b111111101101001001011100000010 B
b111111101101001111110111110100 N
b10111011010011011110001100100010 L
1P
b10 J
b0 `
b0 ?
b0 M
b0 >
b0 K
0@
0O
b101 H
b1 G
b0x ]
0(
#180000
b111111101101001111110111110100 N
b10111011010011011110001100100010 L
1P
0"
00
b0 #
b0 )
b0 6
b0 <
b0 R
b0 .
1(
#185000
11
b111111101101001001011100000010 /
b101101001001011100000011 2
b101101001111110111110100 5
b110011011110001 4
b0x `
1$
b111111101101001111110111110100 &
b111111101101001111110111110100 *
b111111101101001111110111110100 :
b10111011010011011110001100100010 '
b10111011010011011110001100100010 +
b10111011010011011110001100100010 9
b0 N
b0 L
0P
b0 ]
b111111101101001111110111110100 ?
b111111101101001111110111110100 M
b10111011010011011110001100100010 >
b10111011010011011110001100100010 K
1@
1O
b10 G
0(
#190000
b110 I
b1 J
1"
10
b111111101101001001011100000010 #
b111111101101001001011100000010 )
b111111101101001001011100000010 6
b111111101101001001011100000010 <
b111111101101001001011100000010 R
b111111101101001001011100000010 .
1(
#195000
01
b0 /
b0 &
b0 *
b0 :
b0 '
b0 +
b0 9
0$
b111011010011011110001100100010 F
b10111111101101001111110111110100 E
b10111111101101001001011100000010 B
b10111111101101001111110111110100 N
b111011010011011110001100100010 L
1P
b10 J
b0 `
b0 ?
b0 M
b0 >
b0 K
0@
0O
b110 H
b1 G
b0x ]
0(
#200000
b10111111101101001111110111110100 N
b111011010011011110001100100010 L
1P
0"
00
b0 #
b0 )
b0 6
b0 <
b0 R
b0 .
1(
#205000
11
b10111111101101001001011100000010 /
b101101001111110111110100 5
b110011011110001 4
b0x `
1$
b10111111101101001111110111110100 &
b10111111101101001111110111110100 *
b10111111101101001111110111110100 :
b111011010011011110001100100010 '
b111011010011011110001100100010 +
b111011010011011110001100100010 9
b0 N
b0 L
0P
b0 ]
b10111111101101001111110111110100 ?
b10111111101101001111110111110100 M
b111011010011011110001100100010 >
b111011010011011110001100100010 K
1@
1O
b10 G
0(
#210000
b111 I
b1 J
1"
10
b10111111101101001001011100000010 #
b10111111101101001001011100000010 )
b10111111101101001001011100000010 6
b10111111101101001001011100000010 <
b10111111101101001001011100000010 R
b10111111101101001001011100000010 .
1(
#215000
01
b0 /
b0 &
b0 *
b0 :
b0 '
b0 +
b0 9
0$
b10111111101101001111110111110100 F
b111101000000001010110111110101 E
b10111111101100001111100010000100 B
b111101000000001010110111110101 N
b10111111101101001111110111110100 L
1P
b10 J
b0 `
b0 ?
b0 M
b0 >
b0 K
0@
0O
b111 H
b1 G
b0x ]
0(
#220000
b111101000000001010110111110101 N
b10111111101101001111110111110100 L
1P
0"
00
b0 #
b0 )
b0 6
b0 <
b0 R
b0 .
1(
#225000
11
b10111111101100001111100010000100 /
b101100001111100010000101 2
b101 -
b1000000010101101111 5
b101101001111110111110100 4
b0x `
1$
b111101000000001010110111110101 &
b111101000000001010110111110101 *
b111101000000001010110111110101 :
b10111111101101001111110111110100 '
b10111111101101001111110111110100 +
b10111111101101001111110111110100 9
b0 N
b0 L
0P
b0 ]
b111101000000001010110111110101 ?
b111101000000001010110111110101 M
b10111111101101001111110111110100 >
b10111111101101001111110111110100 K
1@
1O
b10 G
0(
#230000
b1000 I
b1 J
1"
10
b10111111101100001111100010000100 #
b10111111101100001111100010000100 )
b10111111101100001111100010000100 6
b10111111101100001111100010000100 <
b10111111101100001111100010000100 R
b10111111101100001111100010000100 .
1(
#235000
01
b0 /
b0 &
b0 *
b0 :
b0 '
b0 +
b0 9
0$
b111111101101001111110111110100 F
b10111101000000001010110111110101 E
b111111101100001111100010000100 B
b10111101000000001010110111110101 N
b111111101101001111110111110100 L
1P
b10 J
b0 `
b0 ?
b0 M
b0 >
b0 K
0@
0O
b1000 H
b1 G
b0x ]
0(
#240000
b10111101000000001010110111110101 N
b111111101101001111110111110100 L
1P
0"
00
b0 #
b0 )
b0 6
b0 <
b0 R
b0 .
1(
#245000
11
b111111101100001111100010000100 /
b1000000010101101111 5
b101101001111110111110100 4
b0x `
1$
b10111101000000001010110111110101 &
b10111101000000001010110111110101 *
b10111101000000001010110111110101 :
b111111101101001111110111110100 '
b111111101101001111110111110100 +
b111111101101001111110111110100 9
b0 N
b0 L
0P
b0 ]
b10111101000000001010110111110101 ?
b10111101000000001010110111110101 M
b111111101101001111110111110100 >
b111111101101001111110111110100 K
1@
1O
b10 G
0(
#250000
b1001 I
b1 J
1"
10
b111111101100001111100010000100 #
b111111101100001111100010000100 )
b111111101100001111100010000100 6
b111111101100001111100010000100 <
b111111101100001111100010000100 R
b111111101100001111100010000100 .
1(
#255000
01
b0 /
b0 &
b0 *
b0 :
b0 '
b0 +
b0 9
0$
b110111011011010011101011010110 F
b10111101000000001001111100100001 B
b10111101000000001010110111110101 N
b110111011011010011101011010110 L
1P
b10 J
b0 `
b0 ?
b0 M
b0 >
b0 K
0@
0O
1A
b1001 H
b1 G
b0x ]
0(
#260000
b10111101000000001010110111110101 N
b110111011011010011101011010110 L
1P
0"
00
b0 #
b0 )
b0 6
b0 <
b0 R
b0 .
1(
#265000
11
b10111101000000001001111100100001 /
b100000001001111100100010 2
b1100 -
b100000001010110111110101 5
b111011010011 4
b0x `
1$
b10111101000000001010110111110101 &
b10111101000000001010110111110101 *
b10111101000000001010110111110101 :
b110111011011010011101011010110 '
b110111011011010011101011010110 +
b110111011011010011101011010110 9
b0 N
b0 L
0P
b0 ]
b10111101000000001010110111110101 ?
b10111101000000001010110111110101 M
b110111011011010011101011010110 >
b110111011011010011101011010110 K
1@
1O
b10 G
0(
#270000
b11 J
1"
10
b10111101000000001001111100100001 #
b10111101000000001001111100100001 )
b10111101000000001001111100100001 6
b10111101000000001001111100100001 <
b10111101000000001001111100100001 R
b10111101000000001001111100100001 .
1(
#275000
01
b0 /
b0 &
b0 *
b0 :
b0 '
b0 +
b0 9
0$
b100 J
b0 `
b0 ?
b0 M
b0 >
b0 K
0@
0O
b11 G
b0x ]
0(
#280000
0"
00
b0 #
b0 )
b0 6
b0 <
b0 R
b0 .
1(
#285000
b0x `
b10 8
b0 ]
1D
b100 G
0(
#290000
1(
#295000
b0 `
1%
1S
b0x ]
b10 7
0(
#300000
1(
#305000
b1 `
b0 ]
0(
#310000
1(
#315000
b111111000000000000000000000000 d
b111111101100000000000000000000 b
1f
b10 `
b1 ]
0(
#320000
1(
#325000
11
b111111001100000000000000000000 /
03
b101100000000000000000000 ,
b100000000000000000000000 5
b101100000000000000000000 4
1$
b111111000000000000000000000000 &
b111111000000000000000000000000 *
b111111000000000000000000000000 :
b111111101100000000000000000000 '
b111111101100000000000000000000 +
b111111101100000000000000000000 9
b0 d
b0 b
0f
b111111000000000000000000000000 U
b111111000000000000000000000000 c
b111111101100000000000000000000 T
b111111101100000000000000000000 a
1V
1e
b10 ]
0(
#330000
b1 _
b1 `
1"
10
b111111001100000000000000000000 #
b111111001100000000000000000000 )
b111111001100000000000000000000 6
b111111001100000000000000000000 <
b111111001100000000000000000000 R
b111111001100000000000000000000 .
1(
#335000
01
b0 /
b0 &
b0 *
b0 :
b0 '
b0 +
b0 9
0$
b111111000000000000000000000000 \
b111111101100000000000000000000 [
b111111101100000000000000000000 d
b111111000000000000000000000000 b
1f
b10 `
b0 U
b0 c
b0 T
b0 a
0V
0e
b1 ^
b1 ]
0(
#340000
b111111101100000000000000000000 d
b111111000000000000000000000000 b
1f
0"
00
b0 #
b0 )
b0 6
b0 <
b0 R
b0 .
1(
#345000
11
b111111001100000000000000000000 /
b101100000000000000000000 ,
b101100000000000000000000 5
b100000000000000000000000 4
1$
b111111101100000000000000000000 &
b111111101100000000000000000000 *
b111111101100000000000000000000 :
b111111000000000000000000000000 '
b111111000000000000000000000000 +
b111111000000000000000000000000 9
b0 d
b0 b
0f
b111111101100000000000000000000 U
b111111101100000000000000000000 c
b111111000000000000000000000000 T
b111111000000000000000000000000 a
1V
1e
b10 ]
0(
#350000
b10 _
b1 `
1"
10
b111111001100000000000000000000 #
b111111001100000000000000000000 )
b111111001100000000000000000000 6
b111111001100000000000000000000 <
b111111001100000000000000000000 R
b111111001100000000000000000000 .
1(
#355000
01
b0 /
b0 &
b0 *
b0 :
b0 '
b0 +
b0 9
0$
b10111111101100000000000000000000 \
b111111000000000000000000000000 [
b10111111001100000000000000000000 X
b111111000000000000000000000000 d
b10111111101100000000000000000000 b
1f
b10 `
b0 U
b0 c
b0 T
b0 a
0V
0e
b10 ^
b1 ]
0(
#360000
b111111000000000000000000000000 d
b10111111101100000000000000000000 b
1f
0"
00
b0 #
b0 )
b0 6
b0 <
b0 R
b0 .
1(
#365000
11
b10111111001100000000000000000000 /
b101100000000000000000000 ,
b100000000000000000000000 5
b101100000000000000000000 4
1$
b111111000000000000000000000000 &
b111111000000000000000000000000 *
b111111000000000000000000000000 :
b10111111101100000000000000000000 '
b10111111101100000000000000000000 +
b10111111101100000000000000000000 9
b0 d
b0 b
0f
b111111000000000000000000000000 U
b111111000000000000000000000000 c
b10111111101100000000000000000000 T
b10111111101100000000000000000000 a
1V
1e
b10 ]
0(
#370000
b11 _
b1 `
1"
10
b10111111001100000000000000000000 #
b10111111001100000000000000000000 )
b10111111001100000000000000000000 6
b10111111001100000000000000000000 <
b10111111001100000000000000000000 R
b10111111001100000000000000000000 .
1(
#375000
01
b0 /
b0 &
b0 *
b0 :
b0 '
b0 +
b0 9
0$
b10111111000000000000000000000000 \
b111111101100000000000000000000 [
b111111101100000000000000000000 d
b10111111000000000000000000000000 b
1f
b10 `
b0 U
b0 c
b0 T
b0 a
0V
0e
b11 ^
b1 ]
0(
#380000
b111111101100000000000000000000 d
b10111111000000000000000000000000 b
1f
0"
00
b0 #
b0 )
b0 6
b0 <
b0 R
b0 .
1(
#385000
11
b10111111001100000000000000000000 /
b101100000000000000000000 ,
b101100000000000000000000 5
b100000000000000000000000 4
1$
b111111101100000000000000000000 &
b111111101100000000000000000000 *
b111111101100000000000000000000 :
b10111111000000000000000000000000 '
b10111111000000000000000000000000 +
b10111111000000000000000000000000 9
b0 d
b0 b
0f
b111111101100000000000000000000 U
b111111101100000000000000000000 c
b10111111000000000000000000000000 T
b10111111000000000000000000000000 a
1V
1e
b10 ]
0(
#390000
b100 _
b1 `
1"
10
b10111111001100000000000000000000 #
b10111111001100000000000000000000 )
b10111111001100000000000000000000 6
b10111111001100000000000000000000 <
b10111111001100000000000000000000 R
b10111111001100000000000000000000 .
1(
#395000
01
b0 /
b0 &
b0 *
b0 :
b0 '
b0 +
b0 9
0$
b10111111101100000000000000000000 \
b111111110000000000000000000000 [
b11000000000001000000000000000000 X
b111111110000000000000000000000 d
b10111111101100000000000000000000 b
1f
b10 `
b0 U
b0 c
b0 T
b0 a
0V
0e
b100 ^
b1 ]
0(
#400000
b111111110000000000000000000000 d
b10111111101100000000000000000000 b
1f
0"
00
b0 #
b0 )
b0 6
b0 <
b0 R
b0 .
1(
#405000
11
b11000000000001000000000000000000 /
b100001000000000000000000 ,
b110000000000000000000000 5
b101100000000000000000000 4
1$
b111111110000000000000000000000 &
b111111110000000000000000000000 *
b111111110000000000000000000000 :
b10111111101100000000000000000000 '
b10111111101100000000000000000000 +
b10111111101100000000000000000000 9
b0 d
b0 b
0f
b111111110000000000000000000000 U
b111111110000000000000000000000 c
b10111111101100000000000000000000 T
b10111111101100000000000000000000 a
1V
1e
b10 ]
0(
#410000
b101 _
b1 `
1"
10
b11000000000001000000000000000000 #
b11000000000001000000000000000000 )
b11000000000001000000000000000000 6
b11000000000001000000000000000000 <
b11000000000001000000000000000000 R
b11000000000001000000000000000000 .
1(
#415000
01
b0 /
b0 &
b0 *
b0 :
b0 '
b0 +
b0 9
0$
b10111111110000000000000000000000 \
b111111101100000000000000000000 [
b111111101100000000000000000000 d
b10111111110000000000000000000000 b
1f
b10 `
b0 U
b0 c
b0 T
b0 a
0V
0e
b101 ^
b1 ]
0(
#420000
b111111101100000000000000000000 d
b10111111110000000000000000000000 b
1f
0"
00
b0 #
b0 )
b0 6
b0 <
b0 R
b0 .
1(
#425000
11
b11000000000001000000000000000000 /
b100001000000000000000000 ,
b101100000000000000000000 5
b110000000000000000000000 4
1$
b111111101100000000000000000000 &
b111111101100000000000000000000 *
b111111101100000000000000000000 :
b10111111110000000000000000000000 '
b10111111110000000000000000000000 +
b10111111110000000000000000000000 9
b0 d
b0 b
0f
b111111101100000000000000000000 U
b111111101100000000000000000000 c
b10111111110000000000000000000000 T
b10111111110000000000000000000000 a
1V
1e
b10 ]
0(
#430000
b110 _
b1 `
1"
10
b11000000000001000000000000000000 #
b11000000000001000000000000000000 )
b11000000000001000000000000000000 6
b11000000000001000000000000000000 <
b11000000000001000000000000000000 R
b11000000000001000000000000000000 .
1(
#435000
01
b0 /
b0 &
b0 *
b0 :
b0 '
b0 +
b0 9
0$
b111111101100000000000000000000 \
b10111111110000000000000000000000 [
b10111111110000000000000000000000 d
b111111101100000000000000000000 b
1f
b10 `
b0 U
b0 c
b0 T
b0 a
0V
0e
b110 ^
b1 ]
0(
#440000
b10111111110000000000000000000000 d
b111111101100000000000000000000 b
1f
0"
00
b0 #
b0 )
b0 6
b0 <
b0 R
b0 .
1(
#445000
11
b11000000000001000000000000000000 /
b100001000000000000000000 ,
b110000000000000000000000 5
b101100000000000000000000 4
1$
b10111111110000000000000000000000 &
b10111111110000000000000000000000 *
b10111111110000000000000000000000 :
b111111101100000000000000000000 '
b111111101100000000000000000000 +
b111111101100000000000000000000 9
b0 d
b0 b
0f
b10111111110000000000000000000000 U
b10111111110000000000000000000000 c
b111111101100000000000000000000 T
b111111101100000000000000000000 a
1V
1e
b10 ]
0(
#450000
b111 _
b1 `
1"
10
b11000000000001000000000000000000 #
b11000000000001000000000000000000 )
b11000000000001000000000000000000 6
b11000000000001000000000000000000 <
b11000000000001000000000000000000 R
b11000000000001000000000000000000 .
1(
#455000
01
b0 /
b0 &
b0 *
b0 :
b0 '
b0 +
b0 9
0$
b111111110000000000000000000000 \
b10111111101100000000000000000000 [
b10111111101100000000000000000000 d
b111111110000000000000000000000 b
1f
b10 `
b0 U
b0 c
b0 T
b0 a
0V
0e
b111 ^
b1 ]
0(
#460000
b10111111101100000000000000000000 d
b111111110000000000000000000000 b
1f
0"
00
b0 #
b0 )
b0 6
b0 <
b0 R
b0 .
1(
#465000
11
b11000000000001000000000000000000 /
b100001000000000000000000 ,
b101100000000000000000000 5
b110000000000000000000000 4
1$
b10111111101100000000000000000000 &
b10111111101100000000000000000000 *
b10111111101100000000000000000000 :
b111111110000000000000000000000 '
b111111110000000000000000000000 +
b111111110000000000000000000000 9
b0 d
b0 b
0f
b10111111101100000000000000000000 U
b10111111101100000000000000000000 c
b111111110000000000000000000000 T
b111111110000000000000000000000 a
1V
1e
b10 ]
0(
#470000
b1000 _
b1 `
1"
10
b11000000000001000000000000000000 #
b11000000000001000000000000000000 )
b11000000000001000000000000000000 6
b11000000000001000000000000000000 <
b11000000000001000000000000000000 R
b11000000000001000000000000000000 .
1(
#475000
01
b0 /
b0 &
b0 *
b0 :
b0 '
b0 +
b0 9
0$
b111111101101001111110111110100 \
b1000000010010001111010111000011 [
b1000000100011100001010000101000 X
b1000000010010001111010111000011 d
b111111101101001111110111110100 b
1f
b10 `
b0 U
b0 c
b0 T
b0 a
0V
0e
b1000 ^
b1 ]
0(
#480000
b1000000010010001111010111000011 d
b111111101101001111110111110100 b
1f
0"
00
b0 #
b0 )
b0 6
b0 <
b0 R
b0 .
1(
#485000
11
b1000000100011100001010000101000 /
13
b100011100001010000100111 ,
b110010001111010111000011 5
b101101001111110111110100 4
1$
b1000000010010001111010111000011 &
b1000000010010001111010111000011 *
b1000000010010001111010111000011 :
b111111101101001111110111110100 '
b111111101101001111110111110100 +
b111111101101001111110111110100 9
b0 d
b0 b
0f
b1000000010010001111010111000011 U
b1000000010010001111010111000011 c
b111111101101001111110111110100 T
b111111101101001111110111110100 a
1V
1e
b10 ]
0(
#490000
b1001 _
b1 `
1"
10
b1000000100011100001010000101000 #
b1000000100011100001010000101000 )
b1000000100011100001010000101000 6
b1000000100011100001010000101000 <
b1000000100011100001010000101000 R
b1000000100011100001010000101000 .
1(
#495000
01
b0 /
b0 &
b0 *
b0 :
b0 '
b0 +
b0 9
0$
b1000000100100011110101110000101 \
b111111100111010111000010100100 [
b1000000101100110111101101001010 X
b111111100111010111000010100100 d
b1000000100100011110101110000101 b
1f
b10 `
b0 U
b0 c
b0 T
b0 a
0V
0e
1W
b1001 ^
b1 ]
0(
#500000
b111111100111010111000010100100 d
b1000000100100011110101110000101 b
1f
0"
00
b0 #
b0 )
b0 6
b0 <
b0 R
b0 .
1(
#505000
11
b1000000101100110111101101001010 /
03
b101100110111101101001010 ,
b100111010111000010100100 5
b100100011110101110000101 4
1$
b111111100111010111000010100100 &
b111111100111010111000010100100 *
b111111100111010111000010100100 :
b1000000100100011110101110000101 '
b1000000100100011110101110000101 +
b1000000100100011110101110000101 9
b0 d
b0 b
0f
b111111100111010111000010100100 U
b111111100111010111000010100100 c
b1000000100100011110101110000101 T
b1000000100100011110101110000101 a
1V
1e
b10 ]
0(
#510000
b11 `
1"
10
b1000000101100110111101101001010 #
b1000000101100110111101101001010 )
b1000000101100110111101101001010 6
b1000000101100110111101101001010 <
b1000000101100110111101101001010 R
b1000000101100110111101101001010 .
1(
#515000
01
b0 /
b0 &
b0 *
b0 :
b0 '
b0 +
b0 9
0$
b100 `
b0 U
b0 c
b0 T
b0 a
0V
0e
b11 ]
0(
#520000
0"
00
b0 #
b0 )
b0 6
b0 <
b0 R
b0 .
1(
#525000
b11 8
1Z
b100 ]
0(
#530000
1(
#535000
b11 7
0(
